A (space) travel into the Tidyverse 🚀
…
---

### From wide to long dataset

```r
dat %>% 
  pivot_wider(names_from = c(cond1, cond2), values_from = value) %>% 
  pivot_longer(4:12, names_to = "cond", values_to = "value")
```

```
## # A tibble: 90 x 5
##       id  cov1  cov2 cond  value
##    <int> <dbl> <dbl> <chr> <dbl>
##  1     1 1.12  0.487 A_1   114. 
##  2     1 1.12  0.487 A_2   110. 
##  3     1 1.12  0.487 A_3   114. 
##  4     1 1.12  0.487 B_1    89.7
##  5     1 1.12  0.487 B_2    97.1
##  6     1 1.12  0.487 B_3    81.9
##  7     1 1.12  0.487 C_1    96.6
##  8     1 1.12  0.487 C_2    97.1
##  9     1 1.12  0.487 C_3   134. 
## 10     2 0.661 0.537 A_1   107. 
## # … with 80 more rows
```
…
