A (space) travel into the Tidyverse 🚀
…
---

### From wide to long dataset

```r
dat %>% 
  pivot_wider(names_from = c(cond1, cond2), values_from = value) %>% 
  pivot_longer(4:12, names_to = "cond", values_to = "value")
```

```
## # A tibble: 90 x 5
##       id   cov1   cov2 cond  value
##    <int>  <dbl>  <dbl> <chr> <dbl>
##  1     1 -1.18  -0.277 A_1    98.3
##  2     1 -1.18  -0.277 A_2   100. 
##  3     1 -1.18  -0.277 A_3    90.9
##  4     1 -1.18  -0.277 B_1   101. 
##  5     1 -1.18  -0.277 B_2   108. 
##  6     1 -1.18  -0.277 B_3    93.4
##  7     1 -1.18  -0.277 C_1   106. 
##  8     1 -1.18  -0.277 C_2    95.3
##  9     1 -1.18  -0.277 C_3   108. 
## 10     2  0.294  0.252 A_1   110. 
## # ... with 80 more rows
```
…
